{
  "styleguide": {
    "title": "Pizza Pasta Website",
    "logo": "/img/logo.svg",
    "repo": {
      "url": "https://gitlab.com/benoitdapoigny/tpi-pizza-pasta-website",
      "tag": "https://gitlab.com/superhuit/xxx/tag/",
      "diff": "https://gitlab.com/superhuit/xxx/compare/%s...%s/"
    },
    "build": "./styleguide/build",
    "static": "./theme/static",
    "src": {
      "components": "./styleguide/components",
      "loaders": {
        "js": "./styleguide/components/_loader.js",
        "scss": "./styleguide/components/_loader.scss"
      },
      "inception": {
        "js": "./styleguide/_fractal/js",
        "css": "./styleguide/_fractal/css",
        "theme": "./styleguide/_fractal/theme"
      }
    },
    "server": {
      "port": 4000,
      "sync": true
    },
    "syncOptions": {
      "open": false,
      "tunnel": false,
      "ghostMode": {
        "clicks": false,
        "forms": false,
        "scroll": false
      },
      "watchOptions": {
        "cwd": "./styleguide/build",
        "ignoreInitial": true,
        "ignored": ["**/*.scss"], "//": "ignore the files you want webpack HMR to take care of"
      },
      "serveStatic": [
        {
          "route": "/img",
          "dir": "./styleguide/img"
        }
      ]
    },
    "docs": {
      "path": "./styleguide/docs",
      "colors": {
        "src": "./styleguide/scss/_variables.scss",
        "dest": "./styleguide/docs/colors.config.js"
      },
      "icons": {
        "src": "./styleguide/icons",
        "dest": "./styleguide/docs/icons.config.js"
      },
      "sass": {
        "src": "./styleguide/scss/*.scss",
        "config": {
          "dest": "./styleguide/docs/sass",
          "verbose": true,
          "theme": "./.sassdoc/theme"
        }
      }
    },
    "statuses": {
      "prototype": {
        "label": "Prototype",
        "description": "Do not implement.",
        "color": "#FF3333"
      },
      "wip": {
        "label": "WIP",
        "description": "Work in progress. Implement with caution.",
        "color": "#FF9233"
      },
      "ready": {
        "label": "Ready",
        "description": "Ready to implement.",
        "color": "#29CC29"
      },
      "deprecated": {
        "label": "Deprecated",
        "description": "Do not implement, remove if used anywhere.",
        "color": "#FF3333"
      }
    },
    "sass": {
      "src": "./styleguide/main.scss",
      "dest": "./theme/static"
    },
    "javascript": {
      "critical": {
        "entries": ["./styleguide/critical.js"],
        "paths": ["./styleguide/js", "./styleguide/components"],
        "dest": "./theme/static/js",
        "build_name": "critical.js"
      },
      "general": {
        "entries": ["./styleguide/index.js"],
        "paths": ["./styleguide/js", "./styleguide/components"],
        "dest": "./theme/static/js",
        "build_name": "build.js"
			}
    },
    "icons": {
      "src": "./styleguide/assets/icons/**/*.svg",
      "sprite": "icons.svg",
      "dest": "./theme/static/img"
    },
    "images": {
      "src": "./styleguide/assets/img/**/*",
      "dest": "./theme/static/img"
    },
    "fonts": {
      "src": "./styleguide/assets/fonts/**/*.*",
      "dest": "./theme/static/fonts"
    },
    "twig": {
      "src": "./styleguide/components/*/**/*.twig",
      "dest": "./theme/templates/components"
    },
    "watch": {
      "fonts": [ "./styleguide/assets/fonts/**/*" ],
      "icons": [ "./styleguide/assets/icons/**/*" ],
      "images": [ "./styleguide/assets/img/**/*" ],
      "twig": [ "./styleguide/components/*/**/*.twig" ],
      "sass": [
        "./styleguide/main.scss",
        "./styleguide/scss/**/*.scss",
        "./styleguide/components/**/*.scss",
        "./styleguide/templates/**/*.scss",
        "!./styleguide/components/**/editor.scss"
      ],
      "javascript": {
        "general": [
          "./styleguide/index.js",
          "./styleguide/js/**/*.js",
          "./styleguide/components/**/*.js",
          "!./styleguide/**/editor.js"
        ],
        "critical": [ "./styleguide/critical.js" ]
      },
      "styleguide": {
        "assets": {
          "js": ["./styleguide/_fractal/js/**/*.js"],
          "css": ["./styleguide/_fractal/css/**/*.css"]
        },
        "docs": {
          "sass": [ "./styleguide/scss/*.scss" ],
          "colors": [ "./styleguide/scss/_variables.scss" ]
        }
      }
    }
  }
}
