<?xml version="1.0" encoding="UTF-8"?>
<svg width="16px" height="16px" viewBox="0 0 16 16" version="1.1" xmlns="http://www.w3.org/2000/svg" xmlns:xlink="http://www.w3.org/1999/xlink">
    <!-- Generator: Sketch 62 (91390) - https://sketch.com -->
    <title>load-more</title>
    <desc>Created with Sketch.</desc>
    <g id="load-more" stroke="none" stroke-width="1" fill-rule="evenodd">
        <g id="external" transform="translate(8.000000, 7.000000) rotate(135.000000) translate(-8.000000, -7.000000) translate(3.000000, 2.000000)">
            <polygon id="Path" points="9.5 0.5 9.5 8 8.5 8 8.5 1.5 2 1.5 2 0.5"></polygon>
            <polygon id="Path-4" points="8.6464466 0.64644661 9.3535534 1.35355339 1.59828205 9.1088247 0.89117527 8.4017179"></polygon>
        </g>
    </g>
</svg>
